{
  "name": "MaterialType",
  "base": "PersistedModel",
  "idInjection": true,
  "options": {
    "validateUpsert": true
  },
  "properties": {
    
    "createdAt": {
      "type": "date"
    },
    "updatedAt": {
      "type": "date"
    },
    "image": {
      "type": "string",
      "default": ""
    }
  },
  "validations": [],
  "relations": {
    "material": {
      "type": "belongsTo",
      "model": "Material",
      "foreignKey": ""
    }
  },
  "acls": [],
  "methods": {}
}
