{
  "name": "People",
  "base": "User",
  "idInjection": true,
  "indexes": {
    "locationIndex": {
      "geoPoint": "2dsphere"
    }
  },
  "options": {
    "validateUpsert": true
  },
  "rahOptions": {
    "roles": {
      "isDefine": true,
      "roles": [
        "admin",
        "user",
        "agent",
        "owner",
        "driver",
        "emitra",
        "webuser"
      ],
      "defaultUser": "admin"
    }
  },
  "properties": {
    "billImg": {
      "type": "string",
      "default": ""
    },
    "loadingVehicleImg": {
      "type": "string",
      "default": ""
    },
    "isBlock": {
      "type": "boolean",
      "default": false
    },
    "isDeactivate": {
      "type": "boolean",
      "default": false
    },
    "rating": {
      "type": {
        "totalUsers": {
          "type": "number"
        },
        "totalRating": {
          "type": "number"
        },
        "avgRating": {
          "type": "number"
        }
      },
      "default": {
        "totalUsers": 0,
        "avgRating": 0,
        "totalRating": 0
      }
    },
    "adminApproval": {
      "type": "string",
      "required": true,
      "default": "pending",
      "enum": [
        "pending",
        "approved",
        "rejected"
      ]
    }
  },
  "validations": [],
  "relations": {
    "vehicle": {
      "type": "hasOne",
      "model": "Vehicle",
      "foreignKey": ""
    },
    "vehicleType": {
      "type": "belongsTo",
      "model": "VehicleType",
      "foreignKey": ""
    },
    "material": {
      "type": "belongsTo",
      "model": "Material",
      "foreignKey": ""
    },
    "materialType": {
      "type": "belongsTo",
      "model": "MaterialType",
      "foreignKey": ""
    },
    "orderRequest": {
      "type": "belongsTo",
      "model": "OrderRequest",
      "foreignKey": ""
    }
  },
  "acls": [
    {
      "accessType": "EXECUTE",
      "principalType": "ROLE",
      "principalId": "$everyone",
      "permission": "ALLOW",
      "property": "googleLogin"
    },
    {
      "accessType": "EXECUTE",
      "principalType": "ROLE",
      "principalId": "$everyone",
      "permission": "ALLOW",
      "property": "updateAllUser"
    },
    {
      "accessType": "EXECUTE",
      "principalType": "ROLE",
      "principalId": "$everyone",
      "permission": "ALLOW",
      "property": "nearByAgent"
    },
    {
      "accessType": "EXECUTE",
      "principalType": "ROLE",
      "principalId": "$everyone",
      "permission": "ALLOW",
      "property": "signup"
    },
    {
      "accessType": "EXECUTE",
      "principalType": "ROLE",
      "principalId": "$everyone",
      "permission": "ALLOW",
      "property": "resetPassRequest"
    },
    {
      "accessType": "EXECUTE",
      "principalType": "ROLE",
      "principalId": "$everyone",
      "permission": "ALLOW",
      "property": "resetPassword"
    },
    {
      "accessType": "EXECUTE",
      "principalType": "ROLE",
      "principalId": "$everyone",
      "permission": "ALLOW",
      "property": "find"
    },
    {
      "accessType": "EXECUTE",
      "principalType": "ROLE",
      "principalId": "$authenticated",
      "permission": "ALLOW",
      "property": "updateProfile"
    },
    {
      "accessType": "EXECUTE",
      "principalType": "ROLE",
      "principalId": "owner",
      "permission": "ALLOW",
      "property": "driverReg"
    },
    {
      "accessType": "EXECUTE",
      "principalType": "ROLE",
      "principalId": "agent",
      "permission": "ALLOW",
      "property": "driverReg"
    },
    {
      "accessType": "EXECUTE",
      "principalType": "ROLE",
      "principalId": "admin",
      "permission": "ALLOW",
      "property": "approval"
    },
    {
      "accessType": "EXECUTE",
      "principalType": "ROLE",
      "principalId": "owner",
      "permission": "ALLOW",
      "property": "assignVehicle"
    },
    {
      "accessType": "EXECUTE",
      "principalType": "ROLE",
      "principalId": "agent",
      "permission": "ALLOW",
      "property": "assignVehicle"
    },
    {
      "accessType": "EXECUTE",
      "principalType": "ROLE",
      "principalId": "owner",
      "permission": "ALLOW",
      "property": "getDriver"
    },
    {
      "accessType": "EXECUTE",
      "principalType": "ROLE",
      "principalId": "agent",
      "permission": "ALLOW",
      "property": "getDriver"
    },
    {
      "accessType": "EXECUTE",
      "principalType": "ROLE",
      "principalId": "driver",
      "permission": "ALLOW",
      "property": "driverAvailability"
    },
    {
      "accessType": "EXECUTE",
      "principalType": "ROLE",
      "principalId": "$everyone",
      "permission": "ALLOW",
      "property": "nearByDrivers"
    },
    {
      "accessType": "EXECUTE",
      "principalType": "ROLE",
      "principalId": "owner",
      "permission": "ALLOW",
      "property": "driverForBooking"
    },
    {
      "accessType": "EXECUTE",
      "principalType": "ROLE",
      "principalId": "agent",
      "permission": "ALLOW",
      "property": "driverForBooking"
    },
    {
      "accessType": "EXECUTE",
      "principalType": "ROLE",
      "principalId": "$authenticated",
      "permission": "ALLOW",
      "property": "setLocation"
    },
    {
      "accessType": "EXECUTE",
      "principalType": "ROLE",
      "principalId": "$authenticated",
      "permission": "ALLOW",
      "property": "userById"
    },
    {
      "accessType": "EXECUTE",
      "principalType": "ROLE",
      "principalId": "driver",
      "permission": "ALLOW",
      "property": "getDriverAvailabilityData"
    },
    {
      "accessType": "EXECUTE",
      "principalType": "ROLE",
      "principalId": "$authenticated",
      "permission": "ALLOW",
      "property": "updateName"
    },
    {
      "accessType": "EXECUTE",
      "principalType": "ROLE",
      "principalId": "$authenticated",
      "permission": "ALLOW",
      "property": "updateEmail"
    },
    {
      "accessType": "EXECUTE",
      "principalType": "ROLE",
      "principalId": "$everyone",
      "permission": "ALLOW",
      "property": "contactUs"
    },
    {
      "accessType": "EXECUTE",
      "principalType": "ROLE",
      "principalId": "$everyone",
      "permission": "ALLOW",
      "property": "updateAnyData"
    },
    {
      "accessType": "EXECUTE",
      "principalType": "ROLE",
      "principalId": "$everyone",
      "permission": "ALLOW",
      "property": "createEmitra"
    },
    {
      "accessType": "EXECUTE",
      "principalType": "ROLE",
      "principalId": "$everyone",
      "permission": "ALLOW",
      "property": "getAllUsers"
    },
    {
      "accessType": "EXECUTE",
      "principalType": "ROLE",
      "principalId": "owner",
      "permission": "ALLOW",
      "property": "blockUser"
    },
    {
      "accessType": "EXECUTE",
      "principalType": "ROLE",
      "principalId": "admin",
      "permission": "ALLOW",
      "property": "blockUser"
    },
    {
      "accessType": "EXECUTE",
      "principalType": "ROLE",
      "principalId": "$authenticated",
      "permission": "ALLOW",
      "property": "changeLanguage"
    }    
  ],
  "methods": {}
}
