{
  "name": "RequestVehicle",
  "base": "PersistedModel",
  "idInjection": true,
  "options": {
    "validateUpsert": true
  },
  "properties": {},
  "validations": [],
  "relations": {
    "creator": {
      "type": "belongsTo",
      "model": "WebUser",
      "foreignKey": ""
    }
  },
  "acls": [
    {
      "accessType": "*",
      "principalType": "ROLE",
      "principalId": "$everyone",
      "permission": "DENY"
    },
    {
      "accessType": "EXECUTE",
      "principalType": "ROLE",
      "principalId": "emitra",
      "permission": "ALLOW",
      "property": "request"
    },
    {
      "accessType": "EXECUTE",
      "principalType": "ROLE",
      "principalId": "webuser",
      "permission": "ALLOW",
      "property": "request"
    },
    {
      "accessType": "EXECUTE",
      "principalType": "ROLE",
      "principalId": "emitra",
      "permission": "ALLOW",
      "property": "getRequestById"
    },
    {
      "accessType": "EXECUTE",
      "principalType": "ROLE",
      "principalId": "webuser",
      "permission": "ALLOW",
      "property": "getRequestById"
    },
    {
      "accessType": "EXECUTE",
      "principalType": "ROLE",
      "principalId": "admin",
      "permission": "ALLOW",
      "property": "getAllForms"
    },
    {
      "accessType": "EXECUTE",
      "principalType": "ROLE",
      "principalId": "admin",
      "permission": "ALLOW",
      "property": "getFormById"
    }
  ],
  "methods": {}
}
