{
  "type": "service_account",
  "project_id": "bababajri-1346a",
  "private_key_id": "70eff7bf8e1077dd83d43179cd9660ad808a5ca0",
  "private_key": "-----BEGIN PRIVATE KEY-----\nMIIEvQIBADANBgkqhkiG9w0BAQEFAASCBKcwggSjAgEAAoIBAQCGbx7qa0ZkozMJ\nq7+pjLBurqhriFgULsZ86SvugkIEd8l+5SQe6uaqHln6OqzzNyxPgi1R1TR88KRS\neZM2noSoV6hDle3pN4chvZ3vrY1KvU00qPPQvzWcu/mhzqMwBb1N9vKcA2bErQPc\n1GloAJ5lm9m8smMlNy+eu9zEhZlLDb8ldrBfN82icp7wXJdgIGJ5dum7UF4Yklid\nuosxKhlfW1jO1zKPlysnjD9icWz8U8DeKC2ZxK6z5np3Hq3P0USMgpMkvteI2WmM\nJuNceplkxa6Pdz+1G2NExeFFbXjLHDiryNUQ6Mi7LhkU0GRhScqQIz+vIMva5Enu\nUVlJKndjAgMBAAECggEAMWJivgS4cEHPfu770oIfUhmRPydwC8H/ImXZwJ1TOSbz\n+0ybz0vFfpr1vMmPPS14dqDAmz4yMO+Jvc5xePAUlW7WHjXWlwTR/GAWw7RCokEW\nOpESOA312OTo2Dr7kamaGCjuiMdrGjbgo1/YdN89UOBGxV3WtBYoxSwH9p2JaZtT\n3zQHiR5YyVWIxet+Z9+uUV9HNp2kv7ZKYwIj/gPkVBYWgW8Uo2C4Zhf8yX9PcivS\n223rh8nz0TKba33JOQfwmd4lcQ9z5k0g7WxW98gV7KzKE0SOZRxzL3U/KukV0fXW\nq4p4XG9jDENFgcoz9DAQy2oPQIlGFCBGKxbNwzMsWQKBgQC5v4rJBmX1IDM8e+wq\nrxNnWWEicChqWpsEsA+mG+6BnmttHigZYF7UNRygE7zOw5MK0cES0h2ipU8UrlhP\nhOvbjZ//l/Xz5FS5O3yUWGctN/NsSUdqJx/iTNuRMPfmMIlUgrinY6fGNvH2ggWq\noWqvI1+jlNzvtvJAgMXub9renwKBgQC5R0F2jnd2aHf+8Tr3gdkTvb2e/nVm9lKr\nA1fxgwN8s9JdMlITiIFXLtRwbhrkHDL6TUIqGxPMqKpW/ft++1BSl9FeQMG7vOv4\nCCG6h4EsYzxUf9A4z4dR142aljSt/rvYNFKQY1KEmV7rYp1omgFxU8mnMpQCG7Cu\nO1ACi6JkvQKBgGOKq2R5glAv1mVWf8SMGFjtRCnBc1czgRmtBGXfWByseiN64sBe\nrdMJN3LtwOQJWRaWO+LLKUiNUGjj2b2bnQ4GwrSlihAOz/yITYXuLjTEZDYmuxe/\nKc4LpCsV0/PPFPluKGjD9hg6P8b7/O9pG5QJ3+n5D8GDCCXbHLdfyCo/AoGASmW+\nd6jFd5qDdK/RCcnuLOsn1UxAQFPw5hK1oZkGMXDTq/Ck3IsXxLZdP7g2vBpGrhOP\n2fB9htTDcaMS9e5cVo332G0QXh6CclpxkMEQsY43j4azSdyrbcWsasKd7LA5JZv8\n+1WmsPAVGVfD9VjB84u9kZHRtPcBfzT578u6LdECgYEAoFB4/TPj15RunNGccJ/+\nQXSkQd8AfmewI5NljVcNLpqIxDSakJ8QLihY+/AKEtTiaX1zk8QN6Gq9S1v6llJt\ndKDndYUjaJKveepTybdoNM6hdvCpCgl5+TTyGcJ/DuWrfOI9KD3CJzQB2CTpF8ua\n38AA6X17pJ2yn2g4w2SW3nM=\n-----END PRIVATE KEY-----\n",
  "client_email": "firebase-adminsdk-9ylua@bababajri-1346a.iam.gserviceaccount.com",
  "client_id": "101900819118239488771",
  "auth_uri": "https://accounts.google.com/o/oauth2/auth",
  "token_uri": "https://accounts.google.com/o/oauth2/token",
  "auth_provider_x509_cert_url": "https://www.googleapis.com/oauth2/v1/certs",
  "client_x509_cert_url": "https://www.googleapis.com/robot/v1/metadata/x509/firebase-adminsdk-9ylua%40bababajri-1346a.iam.gserviceaccount.com"
}
