{
  "_meta": {
    "sources": [
      "loopback/common/models",
      "loopback/server/models",
      "../common/models",
      "./models",
      "../node_modules/loopback-component-passport/lib/models"
    ],
    "mixins": [
      "loopback/common/mixins",
      "loopback/server/mixins",
      "../common/mixins",
      "./mixins"
    ]
  },
  "User": {
    "dataSource": "db",
    "public": false,
    "options": {
      "emailVerificationRequired": false,
      "mobileVerificationRequired": true,
      "allowEternalTokens": true
    }
  },
  "People": {
    "dataSource": "db",
    "public": true,
    "options": {
      "emailVerificationRequired": false,
      "mobileVerificationRequired": true,
      "allowEternalTokens": true
    }
  },
  "AccessToken": {
    "dataSource": "db",
    "public": true
  },
  "ACL": {
    "dataSource": "db",
    "public": false
  },
  "RoleMapping": {
    "dataSource": "db",
    "public": false,
    "options": {
      "strictObjectIDCoercion": true
    }
  },
  "Role": {
    "dataSource": "db",
    "public": false
  },
  "UserCredential": {
    "dataSource": "db",
    "public": false
  },
  "UserIdentity": {
    "dataSource": "db",
    "public": false
  },
  "Email": {
    "dataSource": "Email"
  },
  "Otp": {
    "dataSource": "db",
    "public": true
  },
  "Material": {
    "dataSource": "db",
    "public": true
  },
  "MaterialType": {
    "dataSource": "db",
    "public": true
  },
  "VehicleType": {
    "dataSource": "db",
    "public": true
  },
  "Container": {
    "dataSource": "Myfile",
    "public": true
  },
  "Vehicle": {
    "dataSource": "db",
    "public": true
  },
  "Rating": {
    "dataSource": "db",
    "public": true
  },
  "MaterialRequest": {
    "dataSource": "db",
    "public": true
  },
  "Store": {
    "dataSource": "db",
    "public": true
  },
  "Product": {
    "dataSource": "db",
    "public": true
  },
  "OrderRequest": {
    "dataSource": "db",
    "public": true
  },
  "InstantRequest": {
    "dataSource": "db",
    "public": true
  },
  "Notification": {
    "dataSource": "db",
    "public": true
  },
  "RequestEmployment": {
    "dataSource": "db",
    "public": true
  },
  "RequestDealership": {
    "dataSource": "db",
    "public": true
  },
  "RequestVehicle": {
    "dataSource": "db",
    "public": true
  },
  "WebUser": {
    "dataSource": "db",
    "public": true
  },
  "Setting": {
    "dataSource": "db",
    "public": true
  },
  "SubType": {
    "dataSource": "db",
    "public": true
  }
}
